<?xml version="1.0" encoding="UTF-8" standalone="no"?>
<svg width="147px" height="30px" viewBox="0 0 147 30" version="1.1" xmlns="http://www.w3.org/2000/svg" xmlns:xlink="http://www.w3.org/1999/xlink" xmlns:sketch="http://www.bohemiancoding.com/sketch/ns">
    <!-- Generator: Sketch 3.2.2 (9983) - http://www.bohemiancoding.com/sketch -->
    <title>Imported Layers 5</title>
    <desc>Created with Sketch.</desc>
    <defs>
        <path id="path-1" d="M0.645609866,0.2625 L13.8809048,0.2625 L13.8809048,2.5125 L0.645609866,2.5125 L0.645609866,0.2625 L0.645609866,0.2625 Z"></path>
        <path id="path-3" d="M0.645609866,0.1875 L13.8809048,0.1875 L13.8809048,2.4375 L0.645609866,2.4375 L0.645609866,0.1875 L0.645609866,0.1875 Z"></path>
    </defs>
    <g id="Page-2" stroke="none" stroke-width="1" fill="none" fill-rule="evenodd" sketch:type="MSPage">
        <g id="Imported-Layers-5" sketch:type="MSLayerGroup" transform="translate(73.500000, 15.000000) scale(1, -1) translate(-73.500000, -15.000000) ">
            <path d="M46.4562646,14.1128 L42.3984521,14.1128 L42.3984521,7.4003 L46.4562646,7.4003 C47.8465394,7.4003 48.9083969,7.7003 49.641837,8.3003 C50.3752772,8.9003 50.741618,9.75005 50.741618,10.8503 C50.741618,11.87555 50.3623832,12.67505 49.6039136,13.2503 C48.8454439,13.82555 47.7964804,14.1128 46.4562646,14.1128 M51.2346232,18.3503 C51.2346232,17.47505 50.9441294,16.7003 50.3623832,16.0253 C49.7556075,15.3503 48.9463204,14.88755 47.9352804,14.6378 C50.5648946,14.23805 51.8793224,12.97505 51.8793224,10.8503 C51.8793224,9.4748 51.4113467,8.40005 50.4761536,7.6253 C49.5151726,6.8498 48.1757152,6.4628 46.4562646,6.4628 L41.2228242,6.4628 L41.2228242,22.4003 L45.8874124,22.4003 C49.4522196,22.4003 51.2346232,21.0503 51.2346232,18.3503 M45.8874124,21.5003 L42.3984521,21.5003 L42.3984521,14.9378 L45.8874124,14.9378 C47.2776872,14.9378 48.3524387,15.2753 49.1109083,15.9503 C49.7685015,16.57505 50.0969188,17.3378 50.0969188,18.2378 C50.0969188,20.4128 48.69375,21.5003 45.8874124,21.5003" id="Fill-1" fill="#373737" sketch:type="MSShapeGroup"></path>
            <path d="M61.5119625,21.2378 L61.2085747,20.3003 L57.9092318,12.2753 L65.1146933,12.2753 L61.5119625,21.2378 Z M62.1187382,22.4003 L68.6795005,6.4628 L67.8072604,6.4628 C67.6297785,6.4628 67.4909786,6.5753 67.3901021,6.8003 L65.4560046,11.4128 L57.5679205,11.4128 L55.6717464,6.8003 C55.6209289,6.5753 55.482129,6.4628 55.2545881,6.4628 L54.3444246,6.4628 L60.9431103,22.4003 L62.1187382,22.4003 Z" id="Fill-3" fill="#373737" sketch:type="MSShapeGroup"></path>
            <path d="M73.4197081,22.40015 L73.4197081,7.47515 L81.0802513,7.47515 L81.0802513,6.46265 L72.2820037,6.46265 L72.2820037,22.40015 L73.4197081,22.40015 Z" id="Fill-5" fill="#373737" sketch:type="MSShapeGroup"></path>
            <path d="M91.39559,21.2378 L91.0922021,20.3003 L87.7928592,12.2753 L94.9983207,12.2753 L91.39559,21.2378 Z M92.0023657,22.4003 L98.5631279,6.4628 L97.6908879,6.4628 C97.513406,6.4628 97.374606,6.5753 97.2737296,6.8003 L95.339632,11.4128 L87.4515479,11.4128 L85.5553738,6.8003 C85.5045564,6.5753 85.3657564,6.4628 85.1382155,6.4628 L84.228052,6.4628 L90.8267377,22.4003 L92.0023657,22.4003 Z" id="Fill-7" fill="#373737" sketch:type="MSShapeGroup"></path>
            <path d="M113.846367,22.40015 L114.870301,22.40015 L114.870301,6.46265 L114.339372,6.46265 C114.162649,6.46265 114.02309,6.53765 113.922214,6.68765 L103.455333,20.52515 L103.455333,6.46265 L102.469322,6.46265 L102.469322,22.40015 L103.038175,22.40015 C103.214898,22.40015 103.354456,22.32515 103.455333,22.17515 L113.88429,8.37515 L113.846367,22.40015 Z" id="Fill-9" fill="#373737" sketch:type="MSShapeGroup"></path>
            <path d="M127.275421,21.575075 C125.3034,21.575075 123.697719,20.937575 122.459139,19.662575 C121.220558,18.362825 120.600888,16.625075 120.600888,14.450075 C120.600888,12.250325 121.220558,10.487825 122.459139,9.162575 C123.621872,7.912325 125.151706,7.287575 127.04788,7.287575 C128.134767,7.287575 129.057824,7.437575 129.816294,7.737575 C130.498917,7.987325 131.181539,8.425325 131.864162,9.050075 C131.940009,9.125075 132.015856,9.162575 132.091703,9.162575 L132.28132,9.087575 L132.736402,8.600075 C131.320339,7.075325 129.399136,6.312575 126.972033,6.312575 C124.721653,6.312575 122.901326,7.049825 121.511051,8.525075 C120.094989,10.025075 119.387337,11.999825 119.387337,14.450075 C119.387337,16.874825 120.120777,18.837575 121.586898,20.337575 C123.05302,21.837575 124.949194,22.587575 127.275421,22.587575 C128.388096,22.587575 129.386242,22.412825 130.271376,22.062575 C131.029845,21.762575 131.788315,21.287825 132.546785,20.637575 L132.16755,20.150075 C132.14252,20.050325 132.053779,20.000075 131.902085,20.000075 C131.522851,20.249825 131.105692,20.512325 130.65061,20.787575 C129.715417,21.312575 128.589849,21.575075 127.275421,21.575075" id="Fill-11" fill="#373737" sketch:type="MSShapeGroup"></path>
            <path d="M146.654547,22.40015 L146.654547,21.42515 L138.197611,21.42515 L138.197611,15.01265 L145.251378,15.01265 L145.251378,14.07515 L138.197611,14.07515 L138.197611,7.43765 L146.654547,7.43765 L146.654547,6.46265 L137.021983,6.46265 L137.021983,22.40015 L146.654547,22.40015 Z" id="Fill-13" fill="#373737" sketch:type="MSShapeGroup"></path>
            <g id="Group-21" transform="translate(6.749469, 11.250000)">
                <g id="Group-17">
                    <mask id="mask-2" sketch:name="Clip 16" fill="white">
                        <use xlink:href="#path-1"></use>
                    </mask>
                    <g id="Clip-16"></g>
                    <path d="M-3.14673826,6.2625 L17.673253,6.2625 L17.673253,-3.4875 L-3.14673826,-3.4875 L-3.14673826,6.2625 Z" id="Fill-15" fill="#373737" sketch:type="MSShapeGroup" mask="url(#mask-2)"></path>
                </g>
                <g id="Group-20" transform="translate(0.000000, 6.000000)">
                    <mask id="mask-4" sketch:name="Clip 19" fill="white">
                        <use xlink:href="#path-3"></use>
                    </mask>
                    <use id="Clip-19" fill="#373737" sketch:type="MSShapeGroup" xlink:href="#path-3"></use>
                    <path d="M-3.14673826,6.1875 L17.673253,6.1875 L17.673253,-3.5625 L-3.14673826,-3.5625 L-3.14673826,6.1875 Z" id="Fill-18" fill="#373737" sketch:type="MSShapeGroup" mask="url(#mask-4)"></path>
                </g>
            </g>
            <path d="M13.8802217,30 L28.0636037,25.8375 L28.0636037,14.25 C28.0636037,12.3 27.380981,10.275 26.0157357,8.175 C24.6504904,6.075 23.0197807,4.575 21.1236066,3.675 L13.9560687,0 L6.86437766,3.675 C4.96820359,4.575 3.3374939,6.075 1.97224857,8.175 C0.657062237,10.1745 0.000227540888,12.20025 0.000227540888,14.25 L0.000227540888,25.7625 L13.8802217,30 Z M2.46525383,14.25 C2.46525383,12.69975 3.02121206,11.04975 4.133887,9.3 C5.19574448,7.62525 6.52306633,6.38775 8.11585254,5.5875 L13.9560687,2.625 L19.8721317,5.5875 C21.4141005,6.36225 22.7292868,7.59975 23.8161738,9.3 C24.9538782,11.025 25.5227305,12.675 25.5227305,14.25 L25.5227305,24.1875 L13.8802217,27.6 L2.46525383,24.2625 L2.46525383,14.25 Z" id="Fill-22" fill="#373737" sketch:type="MSShapeGroup"></path>
        </g>
    </g>
</svg>